Collect ESPN Fantasy Football Data • fflr
…
There are included objects for NFL teams and players.

nfl_players[, -1]
#> # A tibble: 1,063 × 10
#>    firstName lastName  proTeam defaultPositionId jersey weight height   age dateOfBirth debutYear
#>    <chr>     <chr>     <fct>   <fct>             <chr>   <dbl>  <dbl> <int> <date>          <int>
#>  1 Christian McCaffrey Car     RB                22        205     71    25 1996-06-07       2017
#>  2 Dalvin    Cook      Min     RB                33        210     70    26 1995-08-10       2017
#>  3 Davante   Adams     GB      WR                17        215     73    28 1992-12-24       2014
#>  4 Derrick   Henry     Ten     RB                22        247     75    27 1994-01-04       2016
#>  5 Travis    Kelce     KC      TE                87        260     77    31 1989-10-05       2013
#>  6 Alvin     Kamara    NO      RB                41        215     70    26 1995-07-25       2017
#>  7 Tyreek    Hill      KC      WR                10        185     70    27 1994-03-01       2016
#>  8 Stefon    Diggs     Buf     WR                14        191     72    27 1993-11-29       2015
#>  9 Patrick   Mahomes   KC      QB                15        230     75    25 1995-09-17       2017
#> 10 DK        Metcalf   Sea     WR                14        235     76    23 1997-12-14       2019
#> # … with 1,053 more rows
…
