…
There are included objects for NFL teams and players.

``` r
nfl_teams
#> # A tibble: 33 × 6
#>    proTeamId abbrev location   name       byeWeek conference
#>        <int> <fct>  <chr>      <chr>        <int> <chr>     
#>  1         0 FA     <NA>       Free Agent      NA <NA>      
#>  2         1 Atl    Atlanta    Falcons          5 NFC       
#>  3         2 Buf    Buffalo    Bills            7 AFC       
#>  4         3 Chi    Chicago    Bears            5 NFC       
#>  5         4 Cin    Cincinnati Bengals         10 AFC       
#>  6         5 Cle    Cleveland  Browns           9 AFC       
#>  7         6 Dal    Dallas     Cowboys         10 NFC       
#>  8         7 Den    Denver     Broncos         12 AFC       
#>  9         8 Det    Detroit    Lions            8 NFC       
#> 10         9 GB     Green Bay  Packers          5 NFC       
#> # ℹ 23 more rows
```
…
