Player outlooks — player_outlook • fflr
…
    See also

    Other player functions: 
all_players(),
list_players(),
player_info(),
player_news(),
recent_activity(),
transaction_counter()

    Examples

player_outlook()
#> # A tibble: 144 × 6
#>    seasonId scoringPeriodId      id firstName lastName outlook                  
#>       <int>           <int>   <int> <chr>     <chr>    <chr>                    
#>  1     2022               0 2977187 Cooper    Kupp     "Here is an incomplete l…
#>  2     2022               1 2977187 Cooper    Kupp     "Kupp was \"other-wordly…
#>  3     2022               2 2977187 Cooper    Kupp     "Starting to think this …
#>  4     2022               0 4242335 Jonathan  Taylor   "Taylor returns as the f…
#>  5     2022               1 4242335 Jonathan  Taylor   "Taylor is coming off a …
#>  6     2022               2 4242335 Jonathan  Taylor   "Taylor posted the secon…
#>  7     2022               0 2976212 Stefon    Diggs    "Diggs followed up a car…
#>  8     2022               1 2976212 Stefon    Diggs    "Diggs made 103 receptio…
#>  9     2022               2 2976212 Stefon    Diggs    "The superstar wideout l…
#> 10     2022               0 3918298 Josh      Allen    "Allen enters his fifth …
#> # … with 134 more rows
…
