Professional schedule — pro_schedule • fflr
…
    Value

Data frame of team opponents by week.

    See also

    Other professional football functions: 
pro_events()

    Examples

pro_schedule(seasonId = ffl_year(-2))
#> # A tibble: 512 × 7
#>    seasonId scoringPeriodId matchupId proTeam oppon…¹ isHome date               
#>       <int>           <int>     <int> <fct>   <fct>   <lgl>  <dttm>             
#>  1     2020               1 401220225 KC      Hou     TRUE   2020-09-11 00:20:00
#>  2     2020               1 401220225 Hou     KC      FALSE  2020-09-11 00:20:00
#>  3     2020               1 401220116 Buf     NYJ     TRUE   2020-09-13 17:00:00
#>  4     2020               1 401220116 NYJ     Buf     FALSE  2020-09-13 17:00:00
#>  5     2020               1 401220131 Mia     NE      FALSE  2020-09-13 17:00:00
#>  6     2020               1 401220131 NE      Mia     TRUE   2020-09-13 17:00:00
#>  7     2020               1 401220147 Cle     Bal     FALSE  2020-09-13 17:00:00
#>  8     2020               1 401220147 Bal     Cle     TRUE   2020-09-13 17:00:00
#>  9     2020               1 401220195 Ind     Jax     FALSE  2020-09-13 17:00:00
#> 10     2020               1 401220195 Jax     Ind     TRUE   2020-09-13 17:00:00
#> # … with 502 more rows, and abbreviated variable name ¹​opponent
…
