Fantasy matchup scores — tidy_scores • fflr
…
    expectedWins are calculated by comparing a team score against all other
scores for a given matchup period. This statistic expresses how a team would
fair if the schedule was random The highest scoring team is thus expected to
earn 1 win and the lowest scoring team would expect to win 0 matchups.

    See also

    Other scoring functions: 
live_scoring()

    Examples

tidy_scores(leagueId = "42654852", useMatchup = FALSE)
#> # A tibble: 32 × 8
#>    seasonId scoringPeriodId matchupId teamId abbrev isHome points expectedWins
#>       <int>           <dbl>     <int>  <int> <fct>  <lgl>   <dbl>        <dbl>
#>  1     2021               1         1      1 AUS    TRUE    117.         0    
#>  2     2021               1         1      3 CHI    FALSE   119.         0.333
#>  3     2021               1         2      2 BOS    TRUE    163.         1    
#>  4     2021               1         2      4 DEN    FALSE   135.         0.667
#>  5     2021               2         3      3 CHI    TRUE    154.         0.667
#>  6     2021               2         3      4 DEN    FALSE   160.         1    
#>  7     2021               2         4      1 AUS    TRUE    139.         0.333
#>  8     2021               2         4      2 BOS    FALSE    93.7        0    
#>  9     2021               3         5      4 DEN    TRUE    127.         0.333
#> 10     2021               3         5      1 AUS    FALSE   118.         0    
#> # … with 22 more rows
…
