Fantasy Football Data • fflr
…
Schedule

tidy_schedule(scoringPeriodId = 1)
#> # A tibble: 68 × 7
#>    seasonId matchupPeriodId matchupId teamId abbrev opponent isHome
#>       <int>           <int>     <int>  <int> <fct>  <fct>    <lgl> 
#>  1     2024               1         1      1 AUS    CHI      TRUE  
#>  2     2024               1         1      3 CHI    AUS      FALSE 
#>  3     2024               1         2      2 BOS    DEN      TRUE  
#>  4     2024               1         2      4 DEN    BOS      FALSE 
#>  5     2024               2         3      3 CHI    DEN      TRUE  
#>  6     2024               2         3      4 DEN    CHI      FALSE 
#>  7     2024               2         4      1 AUS    BOS      TRUE  
#>  8     2024               2         4      2 BOS    AUS      FALSE 
#>  9     2024               3         5      4 DEN    AUS      TRUE  
#> 10     2024               3         5      1 AUS    DEN      FALSE 
#> # ℹ 58 more rows
…
transaction_counter()
#> # A tibble: 4 × 14
#>   seasonId scoringPeriodId teamId abbrev waiverRank acquisitionBudgetSpent acquisitions
#>      <int>           <int>  <int> <fct>       <int>                  <int>        <int>
#> 1     2024               1      1 AUS             4                      0            0
#> 2     2024               1      2 BOS             3                      0            0
#> 3     2024               1      3 CHI             1                      0            0
#> 4     2024               1      4 DEN             2                      0            0
#> # ℹ 7 more variables: drops <int>, misc <int>, moveToActive <int>, moveToIR <int>,
#> #   paid <dbl>, teamCharges <dbl>, trades <int>

Draft Recap

draft_recap()
#> # A tibble: 64 × 15
#>    seasonId autoDraftTypeId bidAmount pickId keeper lineupSlot nominatingTeamId
#>       <int>           <int>     <int>  <int> <lgl>  <fct>      <fct>           
#>  1     2024               1        NA      1 FALSE  RB         NA              
#>  2     2024               3        NA      2 FALSE  WR         NA              
#>  3     2024               3        NA      3 FALSE  RB         NA              
#>  4     2024               3        NA      4 FALSE  RB         NA              
#>  5     2024               1        NA      5 FALSE  WR         NA              
#>  6     2024               3        NA      6 FALSE  WR         NA              
#>  7     2024               3        NA      7 FALSE  WR         NA              
#>  8     2024               3        NA      8 FALSE  WR         NA              
#>  9     2024               1        NA      9 FALSE  RB         NA              
#> 10     2024               3        NA     10 FALSE  FLEX       NA              
#> # ℹ 54 more rows
#> # ℹ 8 more variables: overallPickNumber <int>, playerId <int>, reservedForKeeper <lgl>,
#> #   roundId <int>, roundPickNumber <int>, teamId <int>, abbrev <fct>, tradeLocked <lgl>

Recent Activity

recent_activity(scoringPeriodId = 1)
#> # A tibble: 64 × 14
#>    bidAmount executionType id          isActingAsTeamOwner isLeagueManager isPending items
#>        <int> <chr>         <chr>       <lgl>               <lgl>           <lgl>     <lis>
#>  1         0 EXECUTE       905f81fd-d… FALSE               FALSE           FALSE     <df> 
#>  2         0 EXECUTE       f007e4aa-9… FALSE               FALSE           FALSE     <df> 
#>  3         0 EXECUTE       926243a4-c… FALSE               FALSE           FALSE     <df> 
#>  4         0 EXECUTE       2e2236c1-a… FALSE               FALSE           FALSE     <df> 
#>  5         0 EXECUTE       8f7f2583-6… FALSE               FALSE           FALSE     <df> 
#>  6         0 EXECUTE       6a934b5a-4… FALSE               FALSE           FALSE     <df> 
#>  7         0 EXECUTE       1e7ea99a-e… FALSE               FALSE           FALSE     <df> 
#>  8         0 EXECUTE       3b3d98bd-5… FALSE               FALSE           FALSE     <df> 
#>  9         0 EXECUTE       f7b5d86a-3… FALSE               FALSE           FALSE     <df> 
#> 10         0 EXECUTE       6956e466-f… FALSE               FALSE           FALSE     <df> 
#> # ℹ 54 more rows
#> # ℹ 7 more variables: proposedDate <dttm>, scoringPeriodId <int>,
#> #   skipTransactionCounters <lgl>, status <chr>, teamId <int>, type <chr>,
#> #   processDate <dttm>
…
